%YAML 1.1
%TAG !u! tag:unity3d.com,2011:
--- !u!1045 &1
EditorBuildSettings:
  m_ObjectHideFlags: 0
  serializedVersion: 2
  m_Scenes:
  - enabled: 1
    path: Assets/Game Concept/Scenes/Menu.unity
    guid: a4c47aac79b365c4381953c8d811c03d
  - enabled: 1
    path: Assets/Game Concept/Scenes/Game Scene.unity
    guid: 116ad6f8f6471d14bbc0aebfa70907ed
  - enabled: 1
    path: Assets/Game Concept/Scenes/Tutorial.unity
    guid: 45088145e34d2df4b9dc974b864aa031
  m_configObjects: {}
